Date,Time,CPULAvg1
20100703,07:27:20,1.67
20100703,07:27:30,1.56
20100703,07:27:40,1.48
20100703,07:27:50,1.25
20100703,07:28:00,1.29
20100703,07:28:10,1.33
20100703,07:28:20,1.28
20100703,07:28:30,1.54
20100703,07:28:40,1.76
20100703,07:28:50,1.65
20100703,07:29:00,1.55
20100703,07:29:10,1.46
20100703,07:29:20,1.39
20100703,07:29:30,1.33
20100703,07:29:40,1.28
20100703,07:29:50,1.24
20100703,07:30:00,1.20
20100703,07:30:10,1.24
20100703,07:30:20,1.28
20100703,07:30:30,1.24
20100703,07:30:40,1.20
20100703,07:30:50,1.17
20100703,07:31:00,1.37
20100703,07:31:10,1.47
20100703,07:31:20,1.55
20100703,07:31:30,1.54
20100703,07:31:40,1.46
20100703,07:31:50,1.69
20100703,07:32:00,1.58
20100703,07:32:10,1.57
20100703,07:32:20,1.79
20100703,07:32:30,1.74
20100703,07:32:40,1.70
20100703,07:32:50,1.96
20100703,07:33:00,2.18
20100703,07:33:10,2.16
20100703,07:33:20,2.35
20100703,07:33:30,2.36
20100703,07:33:40,2.38
20100703,07:33:50,2.25
20100703,07:34:00,2.05
20100703,07:34:10,1.89
20100703,07:34:20,1.75
20100703,07:34:30,1.64
20100703,07:34:40,1.54
20100703,07:34:50,1.30
20100703,07:35:00,1.49
20100703,07:35:10,1.41
20100703,07:35:20,1.27
20100703,07:35:30,1.08
20100703,07:35:40,0.99
20100703,07:35:50,0.92
20100703,07:36:00,0.86
20100703,07:36:10,0.73
20100703,07:36:20,0.69
20100703,07:36:30,0.66
20100703,07:36:40,0.63
20100703,07:36:50,0.75
20100703,07:37:00,0.87
20100703,07:37:10,0.90
20100703,07:37:20,0.76
20100703,07:37:30,0.94
20100703,07:37:40,0.80
20100703,07:37:50,0.75
20100703,07:38:00,0.63
20100703,07:38:10,0.53
20100703,07:38:20,0.45
20100703,07:38:30,0.38
20100703,07:38:40,0.32
20100703,07:38:50,0.27
20100703,07:39:00,0.23
20100703,07:39:10,0.19
20100703,07:39:20,0.16
20100703,07:39:30,0.14
20100703,07:39:40,0.28
20100703,07:39:50,0.23
20100703,07:40:00,0.20
20100703,07:40:10,0.17
20100703,07:40:20,0.14
20100703,07:40:30,0.12
20100703,07:40:40,0.25
20100703,07:40:50,0.29
20100703,07:41:00,0.24
20100703,07:41:10,0.59
20100703,07:41:20,0.50
20100703,07:41:30,0.42
20100703,07:41:40,0.36
20100703,07:41:50,0.30
20100703,07:42:00,0.26
20100703,07:42:10,0.22
20100703,07:42:20,0.18
20100703,07:42:30,0.15
20100703,07:42:40,0.28
20100703,07:42:50,0.23
20100703,07:43:00,0.20
20100703,07:43:10,0.17
20100703,07:43:20,0.22
20100703,07:43:30,0.19
20100703,07:43:40,0.16
20100703,07:43:50,0.13
20100703,07:44:00,0.11
20100703,07:44:10,0.09
20100703,07:44:20,0.08
20100703,07:44:30,0.07
20100703,07:44:40,0.06
20100703,07:44:50,0.05
20100703,07:45:00,0.20
20100703,07:45:10,0.17
20100703,07:45:20,0.30
20100703,07:45:30,0.33
20100703,07:45:40,0.36
20100703,07:45:50,0.39
20100703,07:46:00,0.41
20100703,07:46:10,0.34
20100703,07:46:20,0.29
20100703,07:46:30,0.25
20100703,07:46:40,0.21
20100703,07:46:50,0.17
20100703,07:47:00,0.15
20100703,07:47:10,0.12
20100703,07:47:20,0.10
20100703,07:47:30,0.09
20100703,07:47:40,0.07
20100703,07:47:50,0.06
20100703,07:48:00,0.05
20100703,07:48:10,0.04
20100703,07:48:20,0.12
20100703,07:48:30,0.10
20100703,07:48:40,0.08
20100703,07:48:50,0.07
20100703,07:49:00,0.06
20100703,07:49:10,0.05
20100703,07:49:20,0.04
20100703,07:49:30,0.03
20100703,07:49:40,0.03
20100703,07:49:50,0.02
20100703,07:50:00,0.02
20100703,07:50:10,0.02
20100703,07:50:20,0.01
20100703,07:50:30,0.01
20100703,07:50:40,0.01
20100703,07:50:50,0.01
20100703,07:51:00,0.15
20100703,07:51:10,0.28
20100703,07:51:20,0.24
20100703,07:51:30,0.43
20100703,07:51:40,0.52
20100703,07:51:50,0.67
20100703,07:52:00,0.80
20100703,07:52:10,0.98
20100703,07:52:20,0.98
20100703,07:52:30,0.83
20100703,07:52:40,0.70
20100703,07:52:50,0.59
20100703,07:53:00,0.50
20100703,07:53:10,0.42
20100703,07:53:20,0.44
20100703,07:53:30,0.40
20100703,07:53:40,1.02
20100703,07:53:50,1.38
20100703,07:54:00,1.24
20100703,07:54:10,1.27
20100703,07:54:20,1.74
20100703,07:54:30,1.69
20100703,07:54:40,1.58
20100703,07:54:50,1.48
20100703,07:55:00,1.25
20100703,07:55:10,1.13
20100703,07:55:20,0.96
20100703,07:55:30,0.89
20100703,07:55:40,0.83
20100703,07:55:50,0.70
20100703,07:56:00,0.60
20100703,07:56:10,0.58
20100703,07:56:20,0.49
20100703,07:56:30,0.41
20100703,07:56:40,0.35
20100703,07:56:50,0.29
20100703,07:57:00,0.25
20100703,07:57:10,0.28
20100703,07:57:20,0.24
20100703,07:57:30,0.35
20100703,07:57:40,0.30
20100703,07:57:50,0.25
20100703,07:58:00,0.21
20100703,07:58:10,0.25
20100703,07:58:20,0.21
20100703,07:58:30,0.18
20100703,07:58:40,0.15
20100703,07:58:50,0.13
20100703,07:59:00,0.11
20100703,07:59:10,0.16
20100703,07:59:20,0.21
20100703,07:59:30,0.18
20100703,07:59:40,0.15
20100703,07:59:50,0.13
20100703,08:00:00,0.11
20100703,08:00:10,0.17
20100703,08:00:20,0.14
20100703,08:00:30,0.20
20100703,08:00:40,0.16
20100703,08:00:50,0.14
20100703,08:01:00,0.12
20100703,08:01:10,0.10
20100703,08:01:20,0.08
20100703,08:01:30,0.07
20100703,08:01:40,0.06
20100703,08:01:50,0.05
20100703,08:02:00,0.04
20100703,08:02:10,0.03
20100703,08:02:20,0.03
20100703,08:02:30,0.02
20100703,08:02:40,0.02
20100703,08:02:50,0.02
20100703,08:03:00,0.01
20100703,08:03:10,0.08
20100703,08:03:20,0.07
20100703,08:03:30,0.06
20100703,08:03:40,0.05
20100703,08:03:50,0.19
20100703,08:04:00,0.16
20100703,08:04:10,0.21
20100703,08:04:20,0.41
20100703,08:04:30,0.65
20100703,08:04:40,0.71
20100703,08:04:50,0.90
20100703,08:05:00,0.76
20100703,08:05:10,0.89
20100703,08:05:20,0.75
20100703,08:05:30,0.63
20100703,08:05:40,0.54
20100703,08:05:50,0.45
20100703,08:06:00,0.46
20100703,08:06:10,0.55
20100703,08:06:20,0.47
20100703,08:06:30,0.39
20100703,08:06:40,0.41
20100703,08:06:50,0.43
20100703,08:07:00,0.58
20100703,08:07:10,0.57
20100703,08:07:20,0.56
20100703,08:07:30,0.62
20100703,08:07:40,0.92
20100703,08:07:50,1.24
20100703,08:08:00,1.19
20100703,08:08:10,1.77
20100703,08:08:20,1.57
20100703,08:08:30,1.33
20100703,08:08:40,1.20
20100703,08:08:50,1.01
20100703,08:09:00,0.86
20100703,08:09:10,1.49
20100703,08:09:20,1.48
20100703,08:09:30,1.33
20100703,08:09:40,1.12
20100703,08:09:50,0.95
20100703,08:10:00,0.80
20100703,08:10:10,0.68
20100703,08:10:20,0.65
20100703,08:10:30,0.55
20100703,08:10:40,0.69
20100703,08:10:50,0.66
20100703,08:11:00,0.56
20100703,08:11:10,0.47
20100703,08:11:20,0.48
20100703,08:11:30,0.41
20100703,08:11:40,0.34
20100703,08:11:50,0.29
20100703,08:12:00,0.32
20100703,08:12:10,0.35
20100703,08:12:20,0.30
20100703,08:12:30,0.33
20100703,08:12:40,0.36
20100703,08:12:50,0.30
20100703,08:13:00,0.26
20100703,08:13:10,0.22
20100703,08:13:20,0.18
20100703,08:13:30,0.15
20100703,08:13:40,0.13
20100703,08:13:50,0.11
20100703,08:14:00,0.09
20100703,08:14:10,0.08
20100703,08:14:20,0.47
20100703,08:14:30,0.39
20100703,08:14:40,0.73
20100703,08:14:50,1.02
20100703,08:15:00,1.34
20100703,08:15:10,1.46
20100703,08:15:20,1.31
20100703,08:15:30,1.19
20100703,08:15:40,1.01
20100703,08:15:50,0.85
20100703,08:16:00,0.72
20100703,08:16:10,0.61
20100703,08:16:20,0.75
20100703,08:16:30,0.79
20100703,08:16:40,0.83
20100703,08:16:50,0.86
20100703,08:17:00,0.88
20100703,08:17:10,0.82
20100703,08:17:20,0.92
20100703,08:17:30,1.01
20100703,08:17:40,1.16
20100703,08:17:50,1.21
20100703,08:18:00,1.25
20100703,08:18:10,1.06
20100703,08:18:20,0.89
20100703,08:18:30,0.76
20100703,08:18:40,0.64
20100703,08:18:50,0.62
20100703,08:19:00,0.52
20100703,08:19:10,0.44
20100703,08:19:20,0.37
20100703,08:19:30,0.32
20100703,08:19:40,0.27
20100703,08:19:50,0.23
20100703,08:20:00,0.19
20100703,08:20:10,0.24
20100703,08:20:20,0.20
20100703,08:20:30,0.17
20100703,08:20:40,0.14
20100703,08:20:50,0.12
20100703,08:21:00,0.10
20100703,08:21:10,0.17
20100703,08:21:20,0.14
20100703,08:21:30,0.19
20100703,08:21:40,0.16
20100703,08:21:50,0.30
20100703,08:22:00,0.40
20100703,08:22:10,0.48
20100703,08:22:20,0.56
20100703,08:22:30,0.54
20100703,08:22:40,0.46
20100703,08:22:50,0.77
20100703,08:23:00,0.72
20100703,08:23:10,0.61
20100703,08:23:20,0.52
20100703,08:23:30,0.75
20100703,08:23:40,0.63
20100703,08:23:50,0.61
20100703,08:24:00,0.68
20100703,08:24:10,0.57
20100703,08:24:20,0.56
20100703,08:24:30,0.47
20100703,08:24:40,0.40
20100703,08:24:50,0.41
20100703,08:25:00,0.35
20100703,08:25:10,0.37
20100703,08:25:20,0.31
20100703,08:25:30,0.41
20100703,08:25:40,0.35
20100703,08:25:50,0.29
20100703,08:26:00,0.33
20100703,08:26:10,0.52
20100703,08:26:20,0.52
20100703,08:26:30,0.60
20100703,08:26:40,0.73
20100703,08:26:50,0.84
20100703,08:27:00,0.94
20100703,08:27:10,1.03
