Date,Time,DSKOpsTot
20100703,07:27:20,4
20100703,07:27:30,2
20100703,07:27:40,52
20100703,07:27:50,5
20100703,07:28:00,123
20100703,07:28:10,145
20100703,07:28:20,95
20100703,07:28:30,86
20100703,07:28:40,106
20100703,07:28:50,116
20100703,07:29:00,146
20100703,07:29:10,129
20100703,07:29:20,139
20100703,07:29:30,213
20100703,07:29:40,127
20100703,07:29:50,130
20100703,07:30:00,241
20100703,07:30:10,151
20100703,07:30:20,170
20100703,07:30:30,123
20100703,07:30:40,234
20100703,07:30:50,124
20100703,07:31:00,72
20100703,07:31:10,129
20100703,07:31:20,100
20100703,07:31:30,117
20100703,07:31:40,146
20100703,07:31:50,81
20100703,07:32:00,137
20100703,07:32:10,170
20100703,07:32:20,312
20100703,07:32:30,288
20100703,07:32:40,409
20100703,07:32:50,374
20100703,07:33:00,435
20100703,07:33:10,425
20100703,07:33:20,403
20100703,07:33:30,176
20100703,07:33:40,100
20100703,07:33:50,90
20100703,07:34:00,66
20100703,07:34:10,184
20100703,07:34:20,81
20100703,07:34:30,178
20100703,07:34:40,204
20100703,07:34:50,10
20100703,07:35:00,22
20100703,07:35:10,40
20100703,07:35:20,1
20100703,07:35:30,3
20100703,07:35:40,4
20100703,07:35:50,0
20100703,07:36:00,1
20100703,07:36:10,2
20100703,07:36:20,5
20100703,07:36:30,2
20100703,07:36:40,0
20100703,07:36:50,1
20100703,07:37:00,1
20100703,07:37:10,3
20100703,07:37:20,20
20100703,07:37:30,32
20100703,07:37:40,0
20100703,07:37:50,39
20100703,07:38:00,0
20100703,07:38:10,2
20100703,07:38:20,1
20100703,07:38:30,1
20100703,07:38:40,1
20100703,07:38:50,4
20100703,07:39:00,0
20100703,07:39:10,4
20100703,07:39:20,0
20100703,07:39:30,1
20100703,07:39:40,3
20100703,07:39:50,0
20100703,07:40:00,0
20100703,07:40:10,0
20100703,07:40:20,0
20100703,07:40:30,0
20100703,07:40:40,1
20100703,07:40:50,0
20100703,07:41:00,0
20100703,07:41:10,9
20100703,07:41:20,2
20100703,07:41:30,2
20100703,07:41:40,0
20100703,07:41:50,0
20100703,07:42:00,0
20100703,07:42:10,3
20100703,07:42:20,0
20100703,07:42:30,0
20100703,07:42:40,0
20100703,07:42:50,2
20100703,07:43:00,0
20100703,07:43:10,0
20100703,07:43:20,0
20100703,07:43:30,0
20100703,07:43:40,1
20100703,07:43:50,0
20100703,07:44:00,0
20100703,07:44:10,1
20100703,07:44:20,2
20100703,07:44:30,0
20100703,07:44:40,0
20100703,07:44:50,0
20100703,07:45:00,12
20100703,07:45:10,2
20100703,07:45:20,1
20100703,07:45:30,0
20100703,07:45:40,1
20100703,07:45:50,2
20100703,07:46:00,1
20100703,07:46:10,3
20100703,07:46:20,0
20100703,07:46:30,2
20100703,07:46:40,4
20100703,07:46:50,0
20100703,07:47:00,0
20100703,07:47:10,1
20100703,07:47:20,1
20100703,07:47:30,0
20100703,07:47:40,1
20100703,07:47:50,0
20100703,07:48:00,0
20100703,07:48:10,1
20100703,07:48:20,1
20100703,07:48:30,0
20100703,07:48:40,0
20100703,07:48:50,1
20100703,07:49:00,0
20100703,07:49:10,1
20100703,07:49:20,0
20100703,07:49:30,0
20100703,07:49:40,1
20100703,07:49:50,16
20100703,07:50:00,103
20100703,07:50:10,1
20100703,07:50:20,2
20100703,07:50:30,0
20100703,07:50:40,1
20100703,07:50:50,1
20100703,07:51:00,0
20100703,07:51:10,2
20100703,07:51:20,1
20100703,07:51:30,2
20100703,07:51:40,0
20100703,07:51:50,4
20100703,07:52:00,0
20100703,07:52:10,1
20100703,07:52:20,0
20100703,07:52:30,0
20100703,07:52:40,1
20100703,07:52:50,1
20100703,07:53:00,0
20100703,07:53:10,1
20100703,07:53:20,1
20100703,07:53:30,0
20100703,07:53:40,1
20100703,07:53:50,0
20100703,07:54:00,0
20100703,07:54:10,1
20100703,07:54:20,1
20100703,07:54:30,0
20100703,07:54:40,0
20100703,07:54:50,2
20100703,07:55:00,0
20100703,07:55:10,1
20100703,07:55:20,0
20100703,07:55:30,0
20100703,07:55:40,1
20100703,07:55:50,1
20100703,07:56:00,0
20100703,07:56:10,2
20100703,07:56:20,2
20100703,07:56:30,2
20100703,07:56:40,1
20100703,07:56:50,1
20100703,07:57:00,0
20100703,07:57:10,3
20100703,07:57:20,1
20100703,07:57:30,1
20100703,07:57:40,1
20100703,07:57:50,2
20100703,07:58:00,0
20100703,07:58:10,1
20100703,07:58:20,0
20100703,07:58:30,0
20100703,07:58:40,1
20100703,07:58:50,1
20100703,07:59:00,0
20100703,07:59:10,0
20100703,07:59:20,1
20100703,07:59:30,0
20100703,07:59:40,1
20100703,07:59:50,0
20100703,08:00:00,0
20100703,08:00:10,1
20100703,08:00:20,1
20100703,08:00:30,0
20100703,08:00:40,0
20100703,08:00:50,1
20100703,08:01:00,0
20100703,08:01:10,2
20100703,08:01:20,0
20100703,08:01:30,2
20100703,08:01:40,3
20100703,08:01:50,1
20100703,08:02:00,0
20100703,08:02:10,1
20100703,08:02:20,1
20100703,08:02:30,0
20100703,08:02:40,1
20100703,08:02:50,1
20100703,08:03:00,1
20100703,08:03:10,1
20100703,08:03:20,1
20100703,08:03:30,0
20100703,08:03:40,1
20100703,08:03:50,6
20100703,08:04:00,5
20100703,08:04:10,13
20100703,08:04:20,39
20100703,08:04:30,4
20100703,08:04:40,8
20100703,08:04:50,40
20100703,08:05:00,0
20100703,08:05:10,1
20100703,08:05:20,4
20100703,08:05:30,0
20100703,08:05:40,0
20100703,08:05:50,1
20100703,08:06:00,6
20100703,08:06:10,4
20100703,08:06:20,41
20100703,08:06:30,41
20100703,08:06:40,56
20100703,08:06:50,55
20100703,08:07:00,6
20100703,08:07:10,1
20100703,08:07:20,7
20100703,08:07:30,6
20100703,08:07:40,98
20100703,08:07:50,78
20100703,08:08:00,9
20100703,08:08:10,50
20100703,08:08:20,26
20100703,08:08:30,1
20100703,08:08:40,0
20100703,08:08:50,1
20100703,08:09:00,1
20100703,08:09:10,39
20100703,08:09:20,18
20100703,08:09:30,16
20100703,08:09:40,1
20100703,08:09:50,0
20100703,08:10:00,8
20100703,08:10:10,0
20100703,08:10:20,3
20100703,08:10:30,0
20100703,08:10:40,1
20100703,08:10:50,0
20100703,08:11:00,0
20100703,08:11:10,2
20100703,08:11:20,4
20100703,08:11:30,6
20100703,08:11:40,4
20100703,08:11:50,0
20100703,08:12:00,0
20100703,08:12:10,0
20100703,08:12:20,3
20100703,08:12:30,1
20100703,08:12:40,0
20100703,08:12:50,0
20100703,08:13:00,0
20100703,08:13:10,2
20100703,08:13:20,1
20100703,08:13:30,0
20100703,08:13:40,0
20100703,08:13:50,0
20100703,08:14:00,2
20100703,08:14:10,1
20100703,08:14:20,0
20100703,08:14:30,1
20100703,08:14:40,1
20100703,08:14:50,0
20100703,08:15:00,0
20100703,08:15:10,0
20100703,08:15:20,1
20100703,08:15:30,2
20100703,08:15:40,0
20100703,08:15:50,0
20100703,08:16:00,0
20100703,08:16:10,3
20100703,08:16:20,0
20100703,08:16:30,12
20100703,08:16:40,1
20100703,08:16:50,1
20100703,08:17:00,3
20100703,08:17:10,2
20100703,08:17:20,2
20100703,08:17:30,0
20100703,08:17:40,2
20100703,08:17:50,0
20100703,08:18:00,0
20100703,08:18:10,0
20100703,08:18:20,1
20100703,08:18:30,2
20100703,08:18:40,0
20100703,08:18:50,0
20100703,08:19:00,0
20100703,08:19:10,2
20100703,08:19:20,2
20100703,08:19:30,0
20100703,08:19:40,0
20100703,08:19:50,0
20100703,08:20:00,2
20100703,08:20:10,1
20100703,08:20:20,1
20100703,08:20:30,0
20100703,08:20:40,2
20100703,08:20:50,0
20100703,08:21:00,1
20100703,08:21:10,2
20100703,08:21:20,12
20100703,08:21:30,99
20100703,08:21:40,0
20100703,08:21:50,3
20100703,08:22:00,3
20100703,08:22:10,44
20100703,08:22:20,4
20100703,08:22:30,1
20100703,08:22:40,0
20100703,08:22:50,0
20100703,08:23:00,2
20100703,08:23:10,6
20100703,08:23:20,0
20100703,08:23:30,2
20100703,08:23:40,5
20100703,08:23:50,21
20100703,08:24:00,1
20100703,08:24:10,0
20100703,08:24:20,3
20100703,08:24:30,2
20100703,08:24:40,0
20100703,08:24:50,0
20100703,08:25:00,0
20100703,08:25:10,6
20100703,08:25:20,5
20100703,08:25:30,1
20100703,08:25:40,0
20100703,08:25:50,0
20100703,08:26:00,3
20100703,08:26:10,24
20100703,08:26:20,38
20100703,08:26:30,22
20100703,08:26:40,21
20100703,08:26:50,3
20100703,08:27:00,19
20100703,08:27:10,44
