Date,Time,DSKWriteKBTot
20100703,07:27:20,270
20100703,07:27:30,194
20100703,07:27:40,3916
20100703,07:27:50,22
20100703,07:28:00,55
20100703,07:28:10,138
20100703,07:28:20,135
20100703,07:28:30,70
20100703,07:28:40,167
20100703,07:28:50,66
20100703,07:29:00,80
20100703,07:29:10,72
20100703,07:29:20,68
20100703,07:29:30,92
20100703,07:29:40,150
20100703,07:29:50,85
20100703,07:30:00,120
20100703,07:30:10,53
20100703,07:30:20,156
20100703,07:30:30,84
20100703,07:30:40,116
20100703,07:30:50,74
20100703,07:31:00,72
20100703,07:31:10,120
20100703,07:31:20,154
20100703,07:31:30,93
20100703,07:31:40,73
20100703,07:31:50,66
20100703,07:32:00,72
20100703,07:32:10,85
20100703,07:32:20,189
20100703,07:32:30,146
20100703,07:32:40,240
20100703,07:32:50,157
20100703,07:33:00,197
20100703,07:33:10,225
20100703,07:33:20,166
20100703,07:33:30,93
20100703,07:33:40,130
20100703,07:33:50,80
20100703,07:34:00,32
20100703,07:34:10,120
20100703,07:34:20,131
20100703,07:34:30,63
20100703,07:34:40,79
20100703,07:34:50,54
20100703,07:35:00,144
20100703,07:35:10,63
20100703,07:35:20,11
20100703,07:35:30,6
20100703,07:35:40,22
20100703,07:35:50,4
20100703,07:36:00,7
20100703,07:36:10,18
20100703,07:36:20,38
20100703,07:36:30,33
20100703,07:36:40,1
20100703,07:36:50,10
20100703,07:37:00,10
20100703,07:37:10,23
20100703,07:37:20,2
20100703,07:37:30,2
20100703,07:37:40,3
20100703,07:37:50,25
20100703,07:38:00,0
20100703,07:38:10,12
20100703,07:38:20,8
20100703,07:38:30,8
20100703,07:38:40,4
20100703,07:38:50,15
20100703,07:39:00,0
20100703,07:39:10,22
20100703,07:39:20,2
20100703,07:39:30,7
20100703,07:39:40,13
20100703,07:39:50,1
20100703,07:40:00,2
20100703,07:40:10,8
20100703,07:40:20,2
20100703,07:40:30,0
20100703,07:40:40,6
20100703,07:40:50,0
20100703,07:41:00,0
20100703,07:41:10,11
20100703,07:41:20,10
20100703,07:41:30,34
20100703,07:41:40,2
20100703,07:41:50,2
20100703,07:42:00,2
20100703,07:42:10,20
20100703,07:42:20,4
20100703,07:42:30,2
20100703,07:42:40,2
20100703,07:42:50,7
20100703,07:43:00,2
20100703,07:43:10,4
20100703,07:43:20,2
20100703,07:43:30,2
20100703,07:43:40,5
20100703,07:43:50,2
20100703,07:44:00,2
20100703,07:44:10,9
20100703,07:44:20,8
20100703,07:44:30,2
20100703,07:44:40,2
20100703,07:44:50,2
20100703,07:45:00,100
20100703,07:45:10,10
20100703,07:45:20,6
20100703,07:45:30,2
20100703,07:45:40,6
20100703,07:45:50,7
20100703,07:46:00,7
20100703,07:46:10,26
20100703,07:46:20,3
20100703,07:46:30,33
20100703,07:46:40,19
20100703,07:46:50,2
20100703,07:47:00,2
20100703,07:47:10,6
20100703,07:47:20,4
20100703,07:47:30,2
20100703,07:47:40,3
20100703,07:47:50,2
20100703,07:48:00,2
20100703,07:48:10,10
20100703,07:48:20,4
20100703,07:48:30,2
20100703,07:48:40,2
20100703,07:48:50,6
20100703,07:49:00,2
20100703,07:49:10,6
20100703,07:49:20,2
20100703,07:49:30,2
20100703,07:49:40,4
20100703,07:49:50,3
20100703,07:50:00,531
20100703,07:50:10,11
20100703,07:50:20,14
20100703,07:50:30,2
20100703,07:50:40,5
20100703,07:50:50,4
20100703,07:51:00,2
20100703,07:51:10,16
20100703,07:51:20,4
20100703,07:51:30,33
20100703,07:51:40,2
20100703,07:51:50,19
20100703,07:52:00,2
20100703,07:52:10,10
20100703,07:52:20,4
20100703,07:52:30,2
20100703,07:52:40,6
20100703,07:52:50,3
20100703,07:53:00,2
20100703,07:53:10,4
20100703,07:53:20,4
20100703,07:53:30,2
20100703,07:53:40,3
20100703,07:53:50,2
20100703,07:54:00,2
20100703,07:54:10,11
20100703,07:54:20,4
20100703,07:54:30,2
20100703,07:54:40,2
20100703,07:54:50,7
20100703,07:55:00,2
20100703,07:55:10,6
20100703,07:55:20,2
20100703,07:55:30,2
20100703,07:55:40,4
20100703,07:55:50,3
20100703,07:56:00,2
20100703,07:56:10,18
20100703,07:56:20,15
20100703,07:56:30,36
20100703,07:56:40,4
20100703,07:56:50,6
20100703,07:57:00,2
20100703,07:57:10,17
20100703,07:57:20,4
20100703,07:57:30,6
20100703,07:57:40,3
20100703,07:57:50,8
20100703,07:58:00,2
20100703,07:58:10,10
20100703,07:58:20,4
20100703,07:58:30,2
20100703,07:58:40,6
20100703,07:58:50,3
20100703,07:59:00,2
20100703,07:59:10,4
20100703,07:59:20,4
20100703,07:59:30,2
20100703,07:59:40,3
20100703,07:59:50,2
20100703,08:00:00,2
20100703,08:00:10,10
20100703,08:00:20,4
20100703,08:00:30,2
20100703,08:00:40,2
20100703,08:00:50,6
20100703,08:01:00,2
20100703,08:01:10,12
20100703,08:01:20,3
20100703,08:01:30,33
20100703,08:01:40,16
20100703,08:01:50,3
20100703,08:02:00,2
20100703,08:02:10,9
20100703,08:02:20,8
20100703,08:02:30,2
20100703,08:02:40,4
20100703,08:02:50,4
20100703,08:03:00,4
20100703,08:03:10,5
20100703,08:03:20,4
20100703,08:03:30,2
20100703,08:03:40,6
20100703,08:03:50,7
20100703,08:04:00,35
20100703,08:04:10,119
20100703,08:04:20,64
20100703,08:04:30,16
20100703,08:04:40,41
20100703,08:04:50,36
20100703,08:05:00,4
20100703,08:05:10,5
20100703,08:05:20,33
20100703,08:05:30,4
20100703,08:05:40,2
20100703,08:05:50,8
20100703,08:06:00,72
20100703,08:06:10,37
20100703,08:06:20,30
20100703,08:06:30,6127
20100703,08:06:40,15
20100703,08:06:50,84
20100703,08:07:00,34
20100703,08:07:10,10
20100703,08:07:20,59
20100703,08:07:30,52
20100703,08:07:40,177
20100703,08:07:50,6307
20100703,08:08:00,20
20100703,08:08:10,7440
20100703,08:08:20,463
20100703,08:08:30,9
20100703,08:08:40,0
20100703,08:08:50,12
20100703,08:09:00,6
20100703,08:09:10,7851
20100703,08:09:20,904
20100703,08:09:30,338
20100703,08:09:40,3
20100703,08:09:50,2
20100703,08:10:00,49
20100703,08:10:10,2
20100703,08:10:20,20
20100703,08:10:30,4
20100703,08:10:40,4
20100703,08:10:50,0
20100703,08:11:00,2
20100703,08:11:10,15
20100703,08:11:20,20
20100703,08:11:30,80
20100703,08:11:40,25
20100703,08:11:50,1
20100703,08:12:00,0
20100703,08:12:10,0
20100703,08:12:20,20
20100703,08:12:30,8
20100703,08:12:40,0
20100703,08:12:50,2
20100703,08:13:00,2
20100703,08:13:10,14
20100703,08:13:20,6
20100703,08:13:30,2
20100703,08:13:40,2
20100703,08:13:50,2
20100703,08:14:00,13
20100703,08:14:10,5
20100703,08:14:20,3
20100703,08:14:30,6
20100703,08:14:40,7
20100703,08:14:50,2
20100703,08:15:00,2
20100703,08:15:10,9
20100703,08:15:20,7
20100703,08:15:30,9
20100703,08:15:40,0
20100703,08:15:50,2
20100703,08:16:00,2
20100703,08:16:10,16
20100703,08:16:20,5
20100703,08:16:30,35
20100703,08:16:40,4
20100703,08:16:50,6
20100703,08:17:00,18
20100703,08:17:10,10
20100703,08:17:20,14
20100703,08:17:30,2
20100703,08:17:40,11
20100703,08:17:50,2
20100703,08:18:00,2
20100703,08:18:10,2
20100703,08:18:20,9
20100703,08:18:30,10
20100703,08:18:40,0
20100703,08:18:50,2
20100703,08:19:00,2
20100703,08:19:10,14
20100703,08:19:20,12
20100703,08:19:30,2
20100703,08:19:40,2
20100703,08:19:50,2
20100703,08:20:00,9
20100703,08:20:10,8
20100703,08:20:20,6
20100703,08:20:30,4
20100703,08:20:40,9
20100703,08:20:50,3
20100703,08:21:00,6
20100703,08:21:10,20
20100703,08:21:20,3
20100703,08:21:30,697
20100703,08:21:40,2
20100703,08:21:50,18
20100703,08:22:00,13
20100703,08:22:10,132
20100703,08:22:20,40
20100703,08:22:30,9
20100703,08:22:40,1
20100703,08:22:50,2
20100703,08:23:00,11
20100703,08:23:10,18
20100703,08:23:20,3
20100703,08:23:30,7
20100703,08:23:40,42
20100703,08:23:50,1
20100703,08:24:00,8
20100703,08:24:10,2
20100703,08:24:20,24
20100703,08:24:30,18
20100703,08:24:40,0
20100703,08:24:50,0
20100703,08:25:00,0
20100703,08:25:10,53
20100703,08:25:20,72
20100703,08:25:30,12
20100703,08:25:40,2
20100703,08:25:50,2
20100703,08:26:00,18
20100703,08:26:10,26
20100703,08:26:20,51
20100703,08:26:30,200
20100703,08:26:40,140
20100703,08:26:50,20
20100703,08:27:00,15
20100703,08:27:10,189
