20100703 08:26:20 44 0 9 11 0 1 0 34 55 501 1983 0 309 1 0.52 0.49 0.51 1543732 1495768 47964 0 273132 521100 110572 669988 1221384 4554388 2880 4551508 0 0 464 0 0 429244 280 51 1685 2 0 0 0 759 9 0 11 25 11 0 0 0 0 14 21 6 3 0 0 0 0 0 34 4 38 280 51 331 0 9 9 81432 7520 5 77238 0 0 0 0 0 0 0 0 0 0 0 0 0 0 0 3 0 0 0 3283 1078 220 69 146 13 7 3 0 1 1
20100703 08:26:30 36 0 15 7 0 2 0 39 54 663 2183 0 308 1 0.60 0.50 0.51 1543732 1503604 40128 0 267672 521732 108680 684524 1238504 4554388 3208 4551180 0 8 1636 0 0 420920 178 200 4786 1 0 0 0 781 29 1 17 48 15 0 0 0 0 73 67 74 10 0 0 0 0 0 16 6 22 178 200 379 0 43 44 78232 7552 5 74033 0 0 0 0 0 0 0 0 0 0 0 0 0 0 0 6 0 0 0 3536 1092 310 62 23 5 2 3 0 1 1
20100703 08:26:40 25 0 5 4 0 3 0 62 33 481 2276 1 308 0 0.73 0.53 0.52 1543732 1498396 45336 0 257648 521036 105616 692836 1242316 4554388 3572 4550816 0 9 1056 0 0 410228 94 140 829 1 0 0 0 783 30 0 17 49 16 0 0 0 0 19 20 7 3 0 0 0 0 0 6 14 21 94 140 234 0 21 21 73567 7552 5 69367 0 0 0 0 0 0 0 0 0 0 0 0 0 0 0 2 0 0 0 4160 1533 285 79 16 1 2 3 0 1 1
20100703 08:26:50 20 0 4 0 0 3 0 72 27 406 1944 0 308 0 0.84 0.56 0.53 1543732 1496288 47444 0 257656 521164 105608 690828 1240640 4554388 3572 4550816 0 0 1200 0 0 410092 9 20 1424 0 0 0 0 783 30 0 17 49 17 0 0 0 0 9 10 6 2 0 0 0 0 0 1 2 3 9 20 29 0 3 3 73569 7552 5 69369 0 0 0 0 0 0 0 0 0 0 0 0 0 0 0 2 0 0 0 4299 1533 330 91 23 1 2 3 0 1 1
20100703 08:27:00 20 0 4 4 0 4 0 68 28 454 2372 0 309 0 0.94 0.59 0.54 1543732 1503364 40368 0 258120 524804 105620 695756 1250956 4554388 3572 4550816 0 0 1044 0 0 413924 408 15 189 4 0 0 0 770 30 1 23 37 12 0 0 0 0 8 12 4 1 0 0 0 0 0 18 1 19 401 15 416 0 3 3 73842 7552 5 69640 0 0 0 0 0 0 0 0 0 0 0 0 0 0 0 2 0 0 0 3410 1159 297 91 23 1 2 3 0 1 1
20100703 08:27:10 73 0 11 11 0 2 0 3 86 605 2314 2 325 1 1.03 0.62 0.55 1543732 1506128 37604 0 230324 531312 98084 730444 1291784 4554388 4788 4549600 0 30 684 0 0 390944 1511 189 3565 11 0 0 0 773 31 1 24 40 17 0 0 0 0 24 19 26 3 0 0 0 0 0 39 5 44 1517 189 1706 0 42 43 63348 7648 5 59077 0 0 0 0 0 0 0 0 0 0 0 0 0 0 0 1 1 0 0 4071 795 183 74 21 1 2 3 0 1 1
20100703 08:27:20 53 0 9 0 0 2 0 36 63 625 2813 2 337 0 1.18 0.67 0.57 1543732 1505028 38704 0 216600 527652 94676 751212 1310856 4554388 5008 4549380 0 6 852 0 0 376720 40 100 2804 0 0 0 0 776 34 1 9 43 12 0 0 0 0 32 33 30 8 0 0 0 0 0 4 8 12 40 100 140 0 17 17 58823 7680 5 54535 0 0 0 0 0 0 0 0 0 0 0 0 0 0 0 4 0 0 0 3808 1246 144 66 12 1 2 3 0 1 1
20100703 08:27:30 19 0 5 2 0 3 0 70 27 551 2122 0 337 0 1.00 0.65 0.56 1543732 1496472 47260 0 216628 527704 94692 741972 1312908 4554388 5008 4549380 0 0 340 0 0 376780 4 65 1597 0 0 0 0 778 36 1 9 45 14 0 0 0 0 8 9 3 1 0 0 0 0 0 0 10 11 4 65 68 0 6 6 58827 7680 5 54539 0 0 0 0 0 0 0 0 0 0 0 0 0 0 0 0 0 0 0 5453 1255 205 95 12 1 2 3 0 1 1
20100703 08:27:40 11 0 3 0 0 2 0 85 15 437 1332 0 337 0 0.84 0.62 0.55 1543732 1496224 47508 0 216636 527704 94692 741716 1312908 4554388 5008 4549380 0 0 192 0 0 376784 0 7 374 0 0 0 0 775 33 1 9 42 11 0 0 0 0 1 1 0 0 0 0 0 0 0 0 0 0 0 7 7 0 1 1 58824 7680 5 54536 0 0 0 0 0 0 0 0 0 0 0 0 0 0 0 0 0 0 0 5427 1275 213 95 13 1 2 3 0 1 1
20100703 08:27:50 23 0 4 5 0 2 0 65 30 595 1708 0 337 0 0.86 0.64 0.56 1543732 1498944 44788 0 216688 528756 94680 743268 1312908 4554388 5008 4549380 0 0 684 0 0 377648 92 66 1018 1 0 0 0 759 17 1 27 26 12 0 0 0 0 41 41 29 6 0 0 0 0 0 6 5 11 92 66 158 0 11 12 58826 7680 5 54528 0 0 0 0 0 0 0 0 0 0 0 0 0 0 0 7 0 0 0 4797 1256 210 95 13 1 2 3 0 1 1
20100703 08:28:00 3 0 1 0 0 1 0 95 5 480 1131 0 338 0 0.80 0.63 0.56 1543732 1499200 44532 0 216708 528756 94680 743564 1312908 4554388 5008 4549380 0 0 328 0 0 377656 0 13 45 0 0 0 0 760 18 1 21 27 12 0 0 0 0 1 1 0 0 0 0 0 0 0 0 1 1 0 13 13 0 2 2 58827 7680 5 54529 0 0 0 0 0 0 0 0 0 0 0 0 0 0 0 0 0 0 0 4753 1246 210 95 13 1 2 3 0 1 1
20100703 08:28:10 51 0 24 23 0 2 0 0 77 704 2047 72 351 0 1.29 0.74 0.59 1543732 1475756 67976 0 147276 592664 76444 738180 1321124 4554388 12128 4542260 0 178 63892 0 0 346144 720 11110 21997 0 0 0 0 760 18 1 20 27 11 0 0 0 0 1 1 0 1 0 0 0 0 0 8 42 50 720 10530 11250 0 2733 2734 37917 7776 5 33552 0 0 0 0 0 0 0 0 0 0 0 0 0 0 0 0 1 0 0 4474 2497 705 227 45 4 2 3 0 1 1
