\relax 
\@writefile{toc}{\contentsline {chapter}{\numberline {5}Evaluation}{27}}
\@writefile{lof}{\addvspace {10\p@ }}
\@writefile{lot}{\addvspace {10\p@ }}
\newlabel{chap:evaluation}{{5}{27}}
\@writefile{toc}{\contentsline {section}{\numberline {5.1}Tool performance evaluation}{27}}
\@writefile{toc}{\contentsline {section}{\numberline {5.2}Transport mode evaluation}{27}}
\@writefile{toc}{\contentsline {section}{\numberline {5.3}Tunnel mode evaluation}{27}}
\@writefile{toc}{\contentsline {section}{\numberline {5.4}Associations overhead evaluation}{27}}
\@setckpt{evaluation}{
\setcounter{page}{28}
\setcounter{equation}{0}
\setcounter{enumi}{2}
\setcounter{enumii}{0}
\setcounter{enumiii}{0}
\setcounter{enumiv}{0}
\setcounter{footnote}{0}
\setcounter{mpfootnote}{0}
\setcounter{part}{0}
\setcounter{chapter}{5}
\setcounter{section}{4}
\setcounter{subsection}{0}
\setcounter{subsubsection}{0}
\setcounter{paragraph}{0}
\setcounter{subparagraph}{0}
\setcounter{figure}{0}
\setcounter{table}{0}
\setcounter{NAT@ctr}{0}
\setcounter{ContinuedFloat}{0}
}
