template header

RULE_ID
RULE_NAME
NEGOTIATION_TYPE
NUMBER_CONTRACTS

package org.slasoi.businessManager.common.drools;
import org.slasoi.businessManager.common.model.EmSpProducts;

template "Merge SLAT Template"

rule "Rule @{RULE_ID} - @{RULE_NAME}"
	when
		product : EmSpProducts()
		number_contracts: Long()
		eval("@{NEGOTIATION_TYPE}".equals(product.getTxNegotiationType()));	
		eval(number_contracts.doubleValue() == new Double("@{NUMBER_CONTRACTS}").doubleValue()
	 	     || number_contracts.doubleValue() < new Double("@{NUMBER_CONTRACTS}").doubleValue());				
	then
        #use desc field to return the results
	    product.setTxProductdesc("true");
	    System.out.println("Result: "+ product.getTxProductdesc());
		System.out.println("@{RULE_NAME} applied.");
    end
    
end template