package org.slasoi.isslam.pac;

import java.util.*;
import org.slasoi.infrastructure.servicemanager.types.Host;
import org.slasoi.isslam.pac.types.*;

rule "new VM" 
salience 900
    when
    	$newhost : ISMHost($key:id, status == ISMHost.Status.NEW);
    	not ISMHost(id == $key, status == ISMHost.Status.STORED);
    then
    	System.out.println("New VM in working memory " + $key);
    	modify($newhost){setStatus(ISMHost.Status.STORED)};
end

rule "VM no changes"
salience 900
    when
    	$newhost : ISMHost($key:id, $newstate: state, status == ISMHost.Status.NEW);
    	$host: ISMHost(id == $key, status == ISMHost.Status.STORED, state == $newstate);
    then
    	System.out.println("No change in VM " + $key);
    	modify($newhost){setStatus(ISMHost.Status.STORED)};
    	retract($host);
end

rule "VM down"
salience 900
    when
    	$newhost : ISMHost($key:id, state == Host.STATE.DOWN, status == ISMHost.Status.NEW);
    	$host: ISMHost(id == $key, status == ISMHost.Status.STORED, state == Host.STATE.UP);
    then
    	System.out.println("Uppppps VM down " + $key);
    	modify($newhost){setStatus(ISMHost.Status.STORED)};
    	retract($host);
end

rule "VM changed"
salience 800
    when
    	$newhost : ISMHost($key:id, $newstate: state, status == ISMHost.Status.NEW);
    	$host: ISMHost(id == $key, status == ISMHost.Status.STORED, state != $newstate);
    then
    	System.out.println("Change detected in VM " + $key);
    	modify($newhost){setStatus(ISMHost.Status.STORED)};
    	retract($host);
end

/*
rule "PrintNetworkEvent"
salience 10
    when
    	$host : ISMHost(); 
    then
    	System.out.println("A network monitoring result has been inserted:");
        System.out.println($host.toString());
end


//Initialization: create a list to store the status of the VMs
rule "CreateMapList"
salience 1000
when
	not Map()
then
	System.out.println("Creating map list");
	Map<String,ISMHost> $map = new HashMap<String, ISMHost>();
	insert($map);
end
*/





