Date,Time,CPUSys
20100703,08:26:20,9
20100703,08:26:30,15
20100703,08:26:40,5
20100703,08:26:50,4
20100703,08:27:00,4
20100703,08:27:10,11
20100703,08:27:20,9
20100703,08:27:30,5
20100703,08:27:40,3
20100703,08:27:50,4
20100703,08:28:00,1
20100703,08:28:10,24
